…
``` r
# Find out what the top international grossing movie is in each of the Bechdel Test categories
bechdel %>%
  filter(between(year, 1990, 2013)) %>%
  filter(clean_test == "ok") %>%
  select(title, binary, clean_test, intgross) %>%
  arrange(desc(intgross))
```

    ## # A tibble: 753 x 4
    ##    title                                        binary clean_test   intgross
    ##    <chr>                                        <chr>  <ord>           <dbl>
    ##  1 Titanic                                      PASS   ok         2185672302
    ##  2 Transformers: Dark of the Moon               PASS   ok         1123794076
    ##  3 Jurassic Park                                PASS   ok         1035626872
    ##  4 Alice in Wonderland                          PASS   ok         1024391110
    ##  5 Star Wars: Episode I - The Phantom Menace    PASS   ok         1007044677
    ##  6 Frozen                                       PASS   ok         1004550114
    ##  7 Harry Potter and the Sorcerer's Stone        PASS   ok          974755371
    ##  8 Despicable Me 2                              PASS   ok          970766005
    ##  9 Pirates of the Caribbean: At World's End     PASS   ok          960996492
    ## 10 Harry Potter and the Deathly Hallows: Part 1 PASS   ok          956399711
    ## # ... with 743 more rows
…
